…
```r
knitr::include_graphics("./images/group_by.pdf")
```

<img src="./images/group_by.pdf" width="70%" style="display: block; margin: auto;" />

In der Abbildung wurde der Datensatz anhand der Spalte `Fach` in mehrere Gruppen geteilt. Wir könnten uns als nächstes z.B. Mittelwerte pro Fach - d.h. pro Gruppe (pro Ausprägung von `Fach`) - ausgeben lassen; in diesem Fall vier Gruppen (Fach A bis D).


```r
test_gruppiert <- group_by(stats_test, interest)
test_gruppiert
#> Source: local data frame [306 x 6]
#> Groups: interest [7]
#> 
#>       X                 V_1 study_time self_eval interest score
#>   <int>              <fctr>      <int>     <int>    <int> <int>
#> 1     1 05.01.2017 13:57:01          5         8        5    29
#> 2     2 05.01.2017 21:07:56          3         7        3    29
#> 3     3 05.01.2017 23:33:47          5        10        6    40
#> 4     4 06.01.2017 09:58:05          2         3        2    18
#> 5     5 06.01.2017 14:13:08          4         8        6    34
#> 6     6 06.01.2017 14:21:18         NA        NA       NA    39
#> # ... with 300 more rows
```
…
